<svg width="28" height="28" viewBox="0 0 28 28" fill="none" xmlns="http://www.w3.org/2000/svg">
<path d="M27.9214 8.22738C27.8542 6.73659 27.6133 5.71657 27.2717 4.82546C26.9132 3.90633 26.4371 3.1217 25.6585 2.34828C24.88 1.57486 24.1014 1.08727 23.1828 0.734187C22.2923 0.386709 21.2729 0.151321 19.783 0.0840673C18.2875 0.0168134 17.8114 0 14.0138 0C10.2106 0 9.73454 0.0168134 8.24465 0.0840673C6.75475 0.151321 5.73535 0.392314 4.84477 0.734187C3.92058 1.09287 3.13643 1.56926 2.36347 2.34828C1.59052 3.1273 1.10322 3.90633 0.750348 4.82546C0.40868 5.71657 0.167832 6.73659 0.100618 8.22738C0.0334049 9.72378 0.0166016 10.2002 0.0166016 14C0.0166016 17.8054 0.0334049 18.2818 0.100618 19.7726C0.167832 21.2634 0.40868 22.2834 0.750348 23.1745C1.10882 24.0937 1.58492 24.8783 2.36347 25.6517C3.13643 26.4307 3.92058 26.9127 4.83917 27.2658C5.72974 27.6133 6.74915 27.8487 8.23905 27.9159C9.73455 27.9832 10.2106 28 14.0082 28C17.8114 28 18.2875 27.9832 19.7774 27.9159C21.2673 27.8487 22.2867 27.6077 23.1772 27.2658C24.0958 26.9071 24.88 26.4307 25.6529 25.6517C26.4259 24.8727 26.9132 24.0937 27.2661 23.1745C27.6133 22.2834 27.8486 21.2634 27.9158 19.7726C27.983 18.2762 27.9998 17.7998 27.9998 14C27.9998 10.2002 27.9886 9.71817 27.9214 8.22738ZM25.4065 19.6605C25.3449 21.028 25.1152 21.7734 24.9248 22.261C24.6727 22.9111 24.3647 23.3819 23.8718 23.8751C23.3789 24.3683 22.914 24.6653 22.2587 24.9287C21.7658 25.1193 21.0208 25.3491 19.6597 25.4107C18.1866 25.478 17.7441 25.4948 14.0026 25.4948C10.2611 25.4948 9.81856 25.478 8.34547 25.4107C6.97879 25.3491 6.23384 25.1193 5.74655 24.9287C5.09682 24.6765 4.62632 24.3683 4.13343 23.8751C3.64053 23.3819 3.34367 22.9167 3.08041 22.261C2.88998 21.7678 2.66033 21.0224 2.59872 19.6605C2.5315 18.1866 2.5147 17.7438 2.5147 14C2.5147 10.2562 2.5315 9.81345 2.59872 8.33947C2.66033 6.97198 2.88998 6.22658 3.08041 5.73899C3.33246 5.08887 3.64053 4.61809 4.13343 4.1249C4.62632 3.63171 5.09122 3.33467 5.74655 3.07126C6.23945 2.8807 6.9844 2.65092 8.34547 2.58927C9.81856 2.52202 10.2611 2.5052 14.0026 2.5052C17.7441 2.5052 18.1866 2.52202 19.6597 2.58927C21.0264 2.65092 21.7714 2.8807 22.2587 3.07126C22.9084 3.32346 23.3789 3.63171 23.8718 4.1249C24.3647 4.61809 24.6615 5.08327 24.9248 5.73899C25.1152 6.23219 25.3449 6.97758 25.4065 8.33947C25.4737 9.81345 25.4905 10.2562 25.4905 14C25.4905 17.7438 25.4681 18.1866 25.4065 19.6605Z" fill="url(#paint0_linear_187_3196)"/>
<path d="M14.0029 6.80383C10.0261 6.80383 6.81104 10.0264 6.81104 14C6.81104 17.9792 10.0317 21.1961 14.0029 21.1961C17.9741 21.1961 21.1947 17.968 21.1947 14C21.1947 10.0208 17.9797 6.80383 14.0029 6.80383ZM14.0029 18.6685C11.4264 18.6685 9.33714 16.5781 9.33714 14C9.33714 11.4219 11.4264 9.33146 14.0029 9.33146C16.5794 9.33146 18.6686 11.4219 18.6686 14C18.6686 16.5781 16.5794 18.6685 14.0029 18.6685Z" fill="url(#paint1_linear_187_3196)"/>
<path d="M21.4743 8.20498C22.4023 8.20498 23.1546 7.45221 23.1546 6.52363C23.1546 5.59505 22.4023 4.84229 21.4743 4.84229C20.5463 4.84229 19.7939 5.59505 19.7939 6.52363C19.7939 7.45221 20.5463 8.20498 21.4743 8.20498Z" fill="#BC30A0"/>
<path d="M0 14C0 17.8054 0.0168034 18.2818 0.0840168 19.7726C0.15123 21.2634 0.392078 22.2834 0.733747 23.1745C1.09222 24.0937 1.56831 24.8783 2.34687 25.6517C3.11982 26.4251 3.90398 26.9127 4.82256 27.2658C5.71314 27.6133 6.73255 27.8487 8.22244 27.9159C9.71794 27.9832 10.194 28 13.9916 28C17.7948 28 18.2709 27.9832 19.7607 27.9159C21.2506 27.8487 22.2701 27.6077 23.1606 27.2658C24.0792 26.9071 24.8634 26.4307 25.6363 25.6517C26.4093 24.8783 26.8966 24.0937 27.2494 23.1745C27.5967 22.2834 27.832 21.2634 27.8992 19.7726C27.9664 18.2762 27.9832 17.7998 27.9832 14C27.9832 10.1946 27.9664 9.71817 27.8992 8.22738C27.832 6.73659 27.5911 5.71657 27.2494 4.82546C26.891 3.90633 26.4149 3.1217 25.6363 2.34828C24.869 1.56926 24.0848 1.08727 23.1662 0.734187C22.2757 0.386709 21.2563 0.151321 19.7664 0.0840673C18.2709 0.0168134 17.7948 0 13.9972 0C10.194 0 9.71794 0.0168134 8.22804 0.0840673C6.73815 0.151321 5.71874 0.392314 4.82817 0.734187C3.90958 1.09287 3.12542 1.56926 2.35247 2.34828C1.57952 3.1273 1.09222 3.90633 0.739348 4.82546C0.392078 5.71657 0.15123 6.73659 0.0840168 8.22738C0.0168034 9.71817 0 10.1946 0 14ZM2.5261 14C2.5261 10.2618 2.54291 9.81345 2.61012 8.33947C2.67173 6.97198 2.90138 6.22658 3.09182 5.73899C3.34387 5.08887 3.65193 4.61809 4.14483 4.1249C4.63773 3.63171 5.10262 3.33467 5.75795 3.07126C6.25085 2.8807 6.9958 2.65092 8.35687 2.58927C9.82997 2.52202 10.2725 2.5052 14.014 2.5052C17.7556 2.5052 18.198 2.52202 19.6711 2.58927C21.0378 2.65092 21.7828 2.8807 22.2701 3.07126C22.9198 3.32346 23.3903 3.63171 23.8832 4.1249C24.3761 4.61809 24.6729 5.08327 24.9362 5.73899C25.1266 6.23219 25.3563 6.97758 25.4179 8.33947C25.4851 9.81345 25.5019 10.2562 25.5019 14C25.5019 17.7438 25.4851 18.1866 25.4179 19.6605C25.3563 21.028 25.1266 21.7734 24.9362 22.261C24.6841 22.9111 24.3761 23.3819 23.8832 23.8751C23.3903 24.3683 22.9254 24.6653 22.2701 24.9287C21.7772 25.1193 21.0322 25.3491 19.6711 25.4107C18.198 25.478 17.7556 25.4948 14.014 25.4948C10.2725 25.4948 9.82997 25.478 8.35687 25.4107C6.9902 25.3491 6.24525 25.1193 5.75795 24.9287C5.10822 24.6765 4.63773 24.3683 4.14483 23.8751C3.65193 23.3819 3.35507 22.9167 3.09182 22.261C2.90138 21.7678 2.67173 21.0224 2.61012 19.6605C2.53731 18.1866 2.5261 17.7382 2.5261 14Z" fill="url(#paint2_linear_187_3196)"/>
<defs>
<linearGradient id="paint0_linear_187_3196" x1="23.6779" y1="2.14107" x2="3.42168" y2="26.9589" gradientUnits="userSpaceOnUse">
<stop stop-color="#AE3DAE"/>
<stop offset="0.0468721" stop-color="#B23BA6"/>
<stop offset="0.1216" stop-color="#BD368E"/>
<stop offset="0.2148" stop-color="#CE2E69"/>
<stop offset="0.3216" stop-color="#E62335"/>
<stop offset="0.418" stop-color="#FF1800"/>
</linearGradient>
<linearGradient id="paint1_linear_187_3196" x1="17.4327" y1="8.22832" x2="10.0741" y2="20.5933" gradientUnits="userSpaceOnUse">
<stop stop-color="#E12F6A"/>
<stop offset="0.1705" stop-color="#EA3751"/>
<stop offset="0.3563" stop-color="#F13D3E"/>
<stop offset="0.5467" stop-color="#F64133"/>
<stop offset="0.7469" stop-color="#F7422F"/>
<stop offset="0.7946" stop-color="#F74C2F"/>
<stop offset="0.8743" stop-color="#F7652F"/>
<stop offset="0.9757" stop-color="#F78F2E"/>
<stop offset="1" stop-color="#F79A2E"/>
</linearGradient>
<linearGradient id="paint2_linear_187_3196" x1="20.3444" y1="-1.1527" x2="7.94954" y2="28.3924" gradientUnits="userSpaceOnUse">
<stop offset="0.2341" stop-color="#9E35A5" stop-opacity="0"/>
<stop offset="0.4512" stop-color="#D42F7F" stop-opacity="0.5"/>
<stop offset="0.7524" stop-color="#F7772E"/>
<stop offset="0.9624" stop-color="#FEF780"/>
</linearGradient>
</defs>
</svg>
