<svg width="20" height="20" viewBox="0 0 20 20" fill="none" xmlns="http://www.w3.org/2000/svg">
<path fill-rule="evenodd" clip-rule="evenodd" d="M9.87025 18.0516C6.79378 18.0516 4.1665 17.5728 4.1665 15.6556C4.1665 13.7382 6.77711 11.9683 9.87025 11.9683C12.9468 11.9683 15.5741 13.7211 15.5741 15.6384C15.5741 17.5549 12.9635 18.0516 9.87025 18.0516Z" stroke="white" stroke-width="1.5" stroke-linecap="round" stroke-linejoin="round"/>
<path fill-rule="evenodd" clip-rule="evenodd" d="M9.86453 9.31142C11.8835 9.31142 13.5199 7.67502 13.5199 5.65608C13.5199 3.63714 11.8835 2.00002 9.86453 2.00002C7.84563 2.00002 6.20852 3.63714 6.20852 5.65608C6.2017 7.6682 7.8267 9.30458 9.83878 9.31142C9.84787 9.31142 9.8562 9.31142 9.86453 9.31142Z" stroke="white" stroke-width="1.5" stroke-linecap="round" stroke-linejoin="round"/>
</svg>
