<svg width="24" height="25" viewBox="0 0 24 25" fill="none" xmlns="http://www.w3.org/2000/svg">
<rect width="24" height="25" fill="#1E1E1E"/>
<g clip-path="url(#clip0_0_1)">
<rect x="-551" y="-302" width="1440" height="1024" rx="16" fill="white"/>
<rect x="-449.25" y="-21.75" width="493.5" height="68.5" rx="9.25" fill="white"/>
<rect x="-449.25" y="-21.75" width="493.5" height="68.5" rx="9.25" stroke="#CCCCCC" stroke-width="1.5"/>
<path fill-rule="evenodd" clip-rule="evenodd" d="M11.8445 22.1618C8.15273 22.1618 5 21.5873 5 19.2866C5 16.9858 8.13273 14.8618 11.8445 14.8618C15.5364 14.8618 18.6891 16.9652 18.6891 19.266C18.6891 21.5658 15.5564 22.1618 11.8445 22.1618Z" stroke="#CCCCCC" stroke-width="1.5" stroke-linecap="round" stroke-linejoin="round"/>
<path fill-rule="evenodd" clip-rule="evenodd" d="M11.8374 11.6736C14.2602 11.6736 16.2238 9.7099 16.2238 7.28718C16.2238 4.86445 14.2602 2.8999 11.8374 2.8999C9.41476 2.8999 7.45022 4.86445 7.45022 7.28718C7.44204 9.70172 9.39204 11.6654 11.8065 11.6736C11.8174 11.6736 11.8274 11.6736 11.8374 11.6736Z" stroke="#CCCCCC" stroke-width="1.5" stroke-linecap="round" stroke-linejoin="round"/>
</g>
<defs>
<clipPath id="clip0_0_1">
<rect x="-551" y="-302" width="1440" height="1024" rx="16" fill="white"/>
</clipPath>
</defs>
</svg>
